…
  summarise(frequency=sum(count)) %>%
  mutate(cumulative_frequency=cumsum(frequency)) %>%
  add_row(pub_year=2000,frequency=0) %>%
  add_row(pub_year=2002,frequency=0) %>%
  add_row(pub_year=2003,frequency=0) %>%
  add_row(pub_year=2004,frequency=0) %>%
  add_row(pub_year=2007,frequency=0) %>%
  add_row(pub_year=2008,frequency=0) %>%
  add_row(pub_year=2010,frequency=0) %>%
  arrange(pub_year) %>%
  mutate(cumulative_frequency=cumsum(frequency)) 
temporal_frequencies
```

    ## # A tibble: 25 × 3
    ##    pub_year frequency cumulative_frequency
    ##       <dbl>     <dbl>                <dbl>
    ##  1     2000         0                    0
    ##  2     2001         2                    2
    ##  3     2002         0                    2
    ##  4     2003         0                    2
    ##  5     2004         0                    2
    ##  6     2005         1                    3
    ##  7     2006         1                    4
    ##  8     2007         0                    4
    ##  9     2008         0                    4
    ## 10     2009         3                    7
    ## # ℹ 15 more rows
…
``` r
state_frequencies <- extraction_data %>%
  select(study,us_state_var) %>%
  separate_longer_delim(c(us_state_var),delim=";") %>%
  add_column(count=1) %>%
  group_by(us_state_var) %>%
  summarise(frequency=sum(count)) %>%
  arrange(desc(frequency)) %>%
  mutate(us_state_var=tolower(us_state_var)) %>%
  rename(state=us_state_var) %>%
  drop_na()
state_frequencies 
```

    ## # A tibble: 38 × 2
    ##    state            frequency
    ##    <chr>                <dbl>
    ##  1 "california"            15
    ##  2 "illinois"               4
    ##  3 "michigan"               3
    ##  4 "new york"               3
    ##  5 "pennsylvania"           3
    ##  6 "utah"                   3
    ##  7 " massachusetts"         2
    ##  8 "arkansas"               2
    ##  9 "florida"                2
    ## 10 "indiana"                2
    ## # ℹ 28 more rows
…
